; Engine configuration file.
; It's best edited using the editor UI and not directly,
; since the parameters that go here are not all obvious.
;
; Format:
;   [section] ; section goes between []
;   param=value ; assign values to parameters

config_version=4

_global_script_classes=[ {
"base": "RichTextLabel",
"class": "MarkDownLabel",
"language": "GDScript",
"path": "res://Markdown/MarkdownLabel/markdown_label.gd"
}, {
"base": "Node",
"class": "MarkDownServer",
"language": "GDScript",
"path": "res://Markdown/Server/markdown_server.gd"
}, {
"base": "Node",
"class": "MarkDownServerOld",
"language": "GDScript",
"path": "res://Markdown/Server/markdown_server_old.gd"
}, {
"base": "Resource",
"class": "ReplaceConfig",
"language": "GDScript",
"path": "res://Markdown/ConfigResources/config.gd"
}, {
"base": "Resource",
"class": "ReplaceEntry",
"language": "GDScript",
"path": "res://Markdown/ConfigResources/replace_entry.gd"
}, {
"base": "RichTextEffect",
"class": "RichTextPulse",
"language": "GDScript",
"path": "res://Markdown/CustomBB/text_size.gd"
} ]
_global_script_class_icons={
"MarkDownLabel": "",
"MarkDownServer": "",
"MarkDownServerOld": "",
"ReplaceConfig": "",
"ReplaceEntry": "",
"RichTextPulse": ""
}

[application]

config/name="Markdown"
run/main_scene="res://Demo/TextEditor.tscn"
config/icon="res://icon.png"

[gui]

common/drop_mouse_on_gui_input_disabled=true

[physics]

common/enable_pause_aware_picking=true

[rendering]

environment/default_environment="res://default_env.tres"
